{
    "app-id": "org.remmina.Remmina",
    "runtime": "org.gnome.Platform",
    "runtime-version": "3.38",
    "sdk": "org.gnome.Sdk",
    "command": "remmina",
    "cleanup": [
        "*.a",
        "*.la",
        "/build-aux",
        "/include",
        "/lib/cmake",
        "/lib/pkgconfig",
        "/share/gnome-session",
        "/share/gtk-doc",
        "/share/man",
        "/share/pkgconfig",
        "/share/xsessions"
    ],
    "finish-args": [
        /* X11 + XShm access */
        "--share=ipc",
        "--socket=fallback-x11",
        "--socket=x11",
        /* Needs to talk to the network */
        "--share=network",
        /* Play sounds redirected from guests */
        "--socket=pulseaudio",
        /* Wayland access */
        "--socket=wayland",
        /* Smartcard access - Requires flatpak >= 1.3.2 (April 2019) */
        "--socket=pcsc",
        /* SSH_AUTH_SOCK access - Requires flatpak >= 0.99.1 */
        "--socket=ssh-auth",
        /* File transfer (although limited to user directory) */
        "--filesystem=home",
        /* Devices access as the user may require to share local devices on the remote server */
        "--env=DCONF_USER_CONFIG_DIR=.config/dconf",
        "--device=all",
        "--talk-name=ca.desrt.dconf",
        "--talk-name=org.gtk.vfs.*",
        "--talk-name=org.freedesktop.portal.Fcitx",
        /* Desktop notifications */
        "--talk-name=org.freedesktop.Notifications",
        /* Needed to save login credentials */
        "--talk-name=org.freedesktop.secrets",
        /* Appindicator */
        "--talk-name=org.kde.StatusNotifierWatcher",
        "--talk-name=com.canonical.indicator.application",
        "--talk-name=org.ayatana.indicator.application",
        /* Query GNOME Shell version (to display systray icon if supported) */
        "--talk-name=org.gnome.Shell",
        "--talk-name=com.canonical.Unity",
        /* Local network host discovery */
        "--system-talk-name=org.freedesktop.Avahi",
        /* Allow rw access to download folder */
        "--filesystem=xdg-download"
    ],
    "add-extensions": {
        "org.freedesktop.Platform.ffmpeg-full": {
            "directory": "lib/ffmpeg",
            "version": "20.08",
            "add-ld-path": ".",
            "no-autodownload": false,
            "autodelete": false
        }
    },
    "cleanup-commands": [
        "mkdir -p /app/lib/ffmpeg"
    ],
    "modules": [
        "shared-modules/dbus-glib/dbus-glib-0.110.json",
        "shared-modules/libappindicator/libappindicator-gtk3-12.10.json",
        {
            "name": "vte",
            "buildsystem" : "meson",
            "build-options" : {
                "env" : {
                    "CXXFLAGS" : "-fno-exceptions"
                }
            },
            "sources" : [
                {
                    "type" : "archive",
                    "url" : "https://download.gnome.org/sources/vte/0.60/vte-0.60.0.tar.xz",
                    "sha256" : "72d1955eb40b4475b858892813a79545cee34409bac2af470606fb4b4d193a1b"
                }
            ]
        },
        {
            "name": "avahi",
            "cleanup": [
                "/bin",
                "/lib/avahi",
                "/share/applications/*.desktop",
                "/share/avahi"
            ],
            "config-opts": [
                "--with-distro=none",
                "--disable-gobject",
                "--disable-introspection",
                "--disable-qt3",
                "--disable-qt4",
                "--disable-gtk",
                "--disable-libdaemon",
                "--disable-python",
                "--disable-pygobject",
                "--disable-mono",
                "--disable-monodoc",
                "--disable-autoipd",
                "--disable-doxygen-doc",
                "--disable-doxygen-dot",
                "--disable-doxygen-xml",
                "--disable-doxygen-html",
                "--disable-manpages",
                "--disable-xmltoman"
            ],
            "sources": [
                {
                    "type": "archive",
                    "url": "https://www.avahi.org/download/avahi-0.7.tar.gz",
                    "sha256": "57a99b5dfe7fdae794e3d1ee7a62973a368e91e414bd0dfa5d84434de5b14804"
                }
            ]
        },
        {
            "name": "nxproxy",
            "no-autogen": true,
            "make-args": [ "build-lite", "PREFIX=${FLATPAK_DEST}" ],
            "install-rule": "install-lite",
            "sources": [
                {
                    "type": "archive",
                    "url": "https://github.com/ArcticaProject/nx-libs/archive/3.5.99.22/nx-libs-3.5.99.22.tar.gz",
                    "sha256": "fa672a7b1cfeca4183a2f9b814f876889ee73a9d49d7ae64e36671dd3562bd5b"
                }
            ]
        },
        {
            /**
            * For smartcard support
            */
            "name": "pcsc",
            "config-opts": [
                "--disable-libsystemd",
                "--enable-pic",
                "--disable-libusb",
                "--enable-shared",
                "--with-systemdsystemunitdir=/app/lib/systemd/"
            ],
            "sources": [
                {
                    "type": "git",
                    "url": "https://github.com/LudovicRousseau/PCSC.git",
                    "tag": "pcsc-1.9.0",
                    "commit": "e796a0f12fbefa459bff0d25e27089615fa91f21"
                }
            ]
        },
        {
            "name": "freerdp",
            "buildsystem": "cmake-ninja",
            "cleanup": [
                "/bin",
                "/lib/libwinpr-tools2.so*",
                "/lib/libuwac0.so*"
            ],
            "config-opts": [
                "-DCMAKE_BUILD_TYPE:STRING=Release",
                "-DCMAKE_INSTALL_LIBDIR:PATH=lib",
                "-DWITH_WAYLAND:BOOL=ON",
                "-DCHANNEL_TSMF:BOOL=ON",
                "-DCHANNEL_URBDRC:BOOL=ON",
                "-DBUILD_TESTING:BOOL=OFF",
                "-DWITH_MANPAGES:BOOL=OFF",
                "-DWITH_GSSAPI:BOOL=OFF",
                "-DWITH_PCSC:BOOL=ON",
                "-DWITH_SERVER:BOOL=OFF",
                "-DWITH_CLIENT:BOOL=OFF",
                "-DWITH_CUPS:BOOL=ON",
                "-DWITH_FFMPEG:BOOL=ON",
                "-DWITH_OSS:BOOL=OFF",
                "-DWITH_PULSE:BOOL=ON",
                "-DWITH_CHANNELS:BOOL=ON",
                "-DBUILTIN_CHANNELS:BOOL=ON",
                "-DWITH_JPEG:BOOL=ON",
                "-DWITH_LIBSYSTEMD:BOOL=OFF"
            ],
            "sources": [
                {
                    "type": "git",
                    "url": "https://github.com/FreeRDP/FreeRDP.git",
                    "tag": "2.3.1",
                    "commit": "136a58fbd0c3c2421a4e02d6422119406f1c32c2"
                }
            ],
            "modules": [
                {
                    /**
                    * libfreerdp uses xprop to try to detect keyboard layout
                    */
                    "name": "xprop",
                    "sources": [
                        {
                            "type": "archive",
                            "url": "https://xorg.freedesktop.org/releases/individual/app/xprop-1.2.4.tar.bz2",
                            "sha256": "8c77fb096e46c60032b7e2bde9492c3ffcc18734f50b395085a5f10bfd3cf753"
                        }
                    ]
                },
                /* libusb-1.0 has been forced as a dependency for FreeRDP */
                "shared-modules/libusb/libusb.json"
            ]
        },
        {
            "name": "spice-gtk",
            "buildsystem": "meson",
            "build-options" : {
                "env" : {
                    "PYTHONPATH" : "/app"
                }
            },
            "config-opts": [
                "-Dvapi=enabled",
                "-Dwebdav=enabled",
                "-Dgtk_doc=disabled"
            ],
            "sources": [
                {
                    "type": "archive",
                    "url": "https://www.spice-space.org/download/gtk/spice-gtk-0.38.tar.xz",
                    "sha256": "5ae974731baf2b41316d4f0b3ae0c2e47f00bff91a5a617e189cd3dedcd96d8e"
                }
            ],
            "modules": [
                {
                    "name" : "python-pyparsing",
                    "buildsystem" : "simple",
                    "build-commands" : [
                        "pip3 install --prefix=/app pyparsing-2.4.6-py2.py3-none-any.whl"
                    ],
                    "sources" : [
                        {
                            "type" : "file",
                            "url" : "https://files.pythonhosted.org/packages/5d/bc/1e58593167fade7b544bfe9502a26dc860940a79ab306e651e7f13be68c2/pyparsing-2.4.6-py2.py3-none-any.whl",
                            "sha256" : "c342dccb5250c08d45fd6f8b4a559613ca603b57498511740e65cd11a2e7dcec"
                        }
                    ]
                },
                {
                    /**
                    * For smartcard support
                    */
                    "name": "libcacard",
                    "config-opts": [
                        "--enable-pcsc"
                    ],
                    "sources": [
                        {
                            "type": "archive",
                            "url": "https://www.spice-space.org/download/libcacard/libcacard-2.7.0.tar.xz",
                            "sha256": "16b1a0847d5f9d2290e0785eca40f2e49d1ed80814bfc758c05c76b3c89cdb6f"
                        }
                    ]
                },
                {
                    "name": "lz4",
                    "subdir": "lib",
                    "no-autogen": true,
                    "make-args": [ "lib" ],
                    "make-install-args": [ "PREFIX=${FLATPAK_DEST}" ],
                    "sources": [
                        {
                            "type": "archive",
                            "url": "https://github.com/lz4/lz4/archive/v1.9.2/lz4-1.9.2.tar.gz",
                            "sha256": "658ba6191fa44c92280d4aa2c271b0f4fbc0e34d249578dd05e50e76d0e5efcc"
                        }
                    ]
                },
                {
                    /**
                    * For webdav (shared folder) support
                    */
                    "name": "phodav",
                    "buildsystem": "meson",
                    "cleanup": [
                        "/bin",
                        "/sbin"
                    ],
                    "config-opts": [
                        "-Dgtk_doc=disabled",
                        "-Dsystemd=disabled"
                    ],
                    "sources": [
                        {
                            "type": "archive",
                            "url": "http://download.gnome.org/sources/phodav/2.3/phodav-2.3.tar.xz",
                            "sha256": "6ef61e624c30a42fb720ef7ade7447e9ba922d69024b0326dc072fa3362ebe59"
                        }
                    ]
                },
                {
                    "name": "spice-protocol",
                    "buildsystem": "meson",
                    "sources": [
                        {
                            "type": "archive",
                            "url": "https://www.spice-space.org/download/releases/spice-protocol-0.14.2.tar.xz",
                            "sha256": "8f3a63c8b68300dffe36f2e75eac57afa1e76d5d80af760fd138a0b3f44cf1e9"
                        }
                    ]
                }
            ]
        },
        {
            "name": "libsodium",
            "sources": [
                {
                    "type": "git",
                    "url": "https://github.com/jedisct1/libsodium.git",
                    "branch": "stable",
                    "commit": "d3f4804f4d4e6b5b4610fe377f6ff24e4368ae09"
                }
            ],
            "post-install": [
                "install -Dm644 LICENSE ${FLATPAK_DEST}/share/licenses/libsodium/LICENSE"
            ]
        },
        {
            "name": "libssh",
            "buildsystem": "cmake-ninja",
            "builddir": true,
            /* FIXME: use ${FLATPAK_DEST} instead of hardcoded //app for nacl flags */
            "config-opts": [
                "-DCMAKE_BUILD_TYPE:STRING=Release",
                "-DWITH_NACL:BOOL=ON",
                "-DNACL_INCLUDE_DIR:PATH=/app/include/",
                "-DNACL_LIBRARY:PATH=/app/lib/nacl/libnacl.a",
                "-DWITH_EXAMPLES:BOOL=OFF"
            ],
            "sources": [
                {
                    "type": "archive",
                    "url": "https://www.libssh.org/files/0.9/libssh-0.9.5.tar.xz",
                    "sha256": "acffef2da98e761fc1fd9c4fddde0f3af60ab44c4f5af05cd1b2d60a3fa08718"
                }
            ],
            "modules": [
                {
                    "name": "nacl",
                    "buildsystem": "simple",
                    "build-commands": [
                        /* Patch build system */
                        "echo ${CC:-gcc} ${CPPFLAGS} ${CFLAGS} -fPIC >okcompilers/c",
                        "echo ${CXX:-g++} ${CPPFLAGS} ${CXXFLAGS} -fPIC >okcompilers/cpp",
                        "sed -e '/shorthostname=/ s/.*/shorthostname=flatpak-builder/g' -i ./do",
                        /* Build */
                        "./do",
                        "cat ./build/flatpak-builder/log",
                        /* Install */
                        "mkdir -v -p /app/lib/nacl",
                        "install -v -m644 -t /app/lib/nacl/ ./build/flatpak-builder/lib/*/*.a",
                        "mkdir -v -p /app/include/nacl",
                        "install -v -m644 -t /app/include/nacl/ ./build/flatpak-builder/include/*/*.h"
                    ],
                    "cleanup": [
                        "/lib/nacl"
                    ],
                    "sources": [
                        {
                            "type": "archive",
                            "path": "sources/nacl-20110221.tar.bz2",
                            "sha256": "4f277f89735c8b0b8a6bbd043b3efb3fa1cc68a9a5da6a076507d067fc3b3bf8"
                        },
                        {
                            "type": "patch",
                            "path": "patches/nacl-20110221-cpufreq-fallback.patch"
                        }
                    ]
                }
            ]
        },
        {
            "name": "libvncserver",
            "buildsystem": "cmake-ninja",
            "builddir": true,
            "config-opts": [
                "-DCMAKE_BUILD_TYPE:STRING=Release"
            ],
            "cleanup": [
                "/bin",
                "/lib/libvncserver.so*"
            ],
            "sources": [
                {
                    "type": "archive",
                    "url": "https://github.com/LibVNC/libvncserver/archive/LibVNCServer-0.9.13.tar.gz",
                    "sha256": "0ae5bb9175dc0a602fe85c1cf591ac47ee5247b87f2bf164c16b05f87cbfa81a"
                }
            ]
        },
        {
            /**
            * Xephyr version 1.17.0 and later don't work fine with GtkSocket,
            * therefore we remain at version 1.16.4:
            *   - https://gitlab.com//Remmina//Remmina//issues//366
            *   - https://bugs.freedesktop.org//show_bug.cgi?id=91700
            */
            "name": "xephyr",
            "config-opts": [
                "--enable-kdrive",
                "--enable-kdrive-evdev",
                "--disable-kdrive-kbd",
                "--disable-kdrive-mouse",
                "--enable-xephyr",
                "--disable-xorg",
                "--disable-xvfb",
                "--disable-xnest",
                "--disable-xquartz",
                "--disable-xwayland",
                "--disable-standalone-xpbproxy",
                "--disable-xwin",
                "--disable-xfake",
                "--disable-xfbdev",
                "--disable-dmx",
                "--with-fontrootdir=/usr/share/fonts",
                "--with-xkb-bin-directory=/usr/bin",
                "--with-xkb-path=/usr/share/X11/xkb",
                "--with-xkb-output=/var/lib/xkb"
            ],
            "sources": [
                {
                    "type": "archive",
                    "url": "https://xorg.freedesktop.org/releases/individual/xserver/xorg-server-1.16.4.tar.bz2",
                    "sha256": "abb6e1cc9213a9915a121f48576ff6739a0b8cdb3d32796f9a7743c9a6efc871"
                }
            ],
            "modules": [
                {
                    "name": "libfontenc",
                    "config-opts": [
                        "--with-fontrootdir=/usr/share/fonts"
                    ],
                    "sources": [
                        {
                            "type": "archive",
                            "url": "https://xorg.freedesktop.org/releases/individual/lib/libfontenc-1.1.4.tar.bz2",
                            "sha256": "2cfcce810ddd48f2e5dc658d28c1808e86dcf303eaff16728b9aa3dbc0092079"
                        }
                    ]
                },
                {
                    "name": "libXfont",
                    "sources": [
                        {
                            "type": "archive",
                            "url": "https://xorg.freedesktop.org/releases/individual/lib/libXfont-1.5.4.tar.bz2",
                            "sha256": "1a7f7490774c87f2052d146d1e0e64518d32e6848184a18654e8d0bb57883242"
                        }
                    ]
                }
            ]
        },
        {
            /* Remmina main build */
            "name": "remmina",
            "buildsystem": "cmake-ninja",
            "cleanup": [
                "/bin/remmina-gnome",
                "/bin/gnome-session-remmina",
                "/share/applications/remmina-gnome.desktop"
            ],
            "config-opts": [
                "-DCMAKE_BUILD_TYPE:STRING=Release",
                "-DWITH_NEWS:BOOL=ON",
                "-DCMAKE_INSTALL_LIBDIR:PATH=lib",
                "-DWITH_FREERDP3:BOOL=OFF",
                "-DWITH_MANPAGES:BOOL=OFF"
            ],
            "sources": [
                {
                    "type": "git",
                    "url": "https://gitlab.com/Remmina/Remmina.git",
                    "branch": "master"
                }
            ]
        }
    ]
}
